{
  "project_info": {
    "project_number": "869867401333",
    "project_id": "forward-subject-166403"
  },
  "client": [
    {
      "client_info": {
        "mobilesdk_app_id": "1:869867401333:android:bfb5903b1d9c6796",
        "android_client_info": {
          "package_name": "com.nextdots.iteractive"
        }
      },
      "oauth_client": [
        {
          "client_id": "869867401333-hlb46hlub080p1laph7u4skifnc54jv2.apps.googleusercontent.com",
          "client_type": 1,
          "android_info": {
            "package_name": "com.nextdots.iteractive",
            "certificate_hash": "68da71d98e47602c3886860ab174bdace776aea5"
          }
        },
        {
          "client_id": "869867401333-n0j22sc6shatvfqdkgt3h7qleo4crla5.apps.googleusercontent.com",
          "client_type": 3
        }
      ],
      "api_key": [
        {
          "current_key": "AIzaSyA391NHPazfM-QAYDwEr5dCZ5WZSz2Bf6o"
        }
      ],
      "services": {
        "analytics_service": {
          "status": 1
        },
        "appinvite_service": {
          "status": 1,
          "other_platform_oauth_client": []
        },
        "ads_service": {
          "status": 1
        }
      }
    }
  ],
  "configuration_version": "1"
}